{
  "name": "ui-kit",
  "$schema": "../../../../../node_modules/nx/schemas/project-schema.json",
  "sourceRoot": "libs/frontend/common/shared/ui-kit/src",
  "prefix": "nx-core",
  "tags": [],
  "projectType": "library",
  "targets": {
    "build": {
      "executor": "@nx/angular:package",
      "outputs": ["{workspaceRoot}/dist/{projectRoot}"],
      "options": {
        "project": "libs/frontend/common/shared/ui-kit/ng-package.json"
      },
      "configurations": {
        "production": {
          "tsConfig": "libs/frontend/common/shared/ui-kit/tsconfig.lib.prod.json"
        },
        "development": {
          "tsConfig": "libs/frontend/common/shared/ui-kit/tsconfig.lib.json"
        }
      },
      "defaultConfiguration": "production"
    },
    "test": {
      "executor": "@nx/jest:jest",
      "outputs": ["{workspaceRoot}/coverage/{projectRoot}"],
      "options": {
        "jestConfig": "libs/frontend/common/shared/ui-kit/jest.config.ts",
        "passWithNoTests": true
      },
      "configurations": {
        "ci": {
          "ci": true,
          "codeCoverage": true
        }
      }
    },
    "lint": {
      "executor": "@nx/linter:eslint",
      "outputs": ["{options.outputFile}"],
      "options": {
        "lintFilePatterns": [
          "libs/frontend/common/shared/ui-kit/**/*.ts",
          "libs/frontend/common/shared/ui-kit/**/*.html",
          "libs/frontend/common/shared/ui-kit/package.json"
        ]
      }
    },
    "semantic-release": {
      "executor": "@theunderscorer/nx-semantic-release:semantic-release",
      "options": {
        "github": false,
        "changelog": true,
        "npm": true,
        "tagFormat": "ui-kit-v${VERSION}",
        "buildTarget": "build",
        "outputPath": "dist/libs/frontend/common/shared/ui-kit"
      }
    }
  }
}
